demo@insuredmine.com,12,01:32:06,25.00%,$0.00,0,0.00%
workflowagent1@gmail.com,7,00:19:38,0.00%,$0.00,0,0.00%
agent2@insuredmine.com,6,01:25:17,0.00%,$0.00,0,0.00%
sharwani@insuredmine.com,5,01:59:09,0.00%,$0.00,0,0.00%
agent1@insuredmine.com,5,02:29:41,0.00%,$0.00,0,0.00%
ben1@insuredmine.com,5,02:18:29,0.00%,$0.00,0,0.00%
carneal@chamblissinsurance.com,3,01:57:04,0.00%,$0.00,0,0.00%
raution@insuredmine.com,3,01:27:40,0.00%,$0.00,0,0.00%
havila@insuredmine.com,3,01:49:30,0.00%,$0.00,0,0.00%
amoreno@quoteasy.com,3,00:09:11,0.00%,$0.00,0,0.00%
shubham1@insuredmine.com,3,00:29:29,33.33%,$0.00,0,0.00%
bryan@breweriigroup.com,2,01:18:11,0.00%,$0.00,0,0.00%
kudeshiyaharshit@outlook.com,2,01:51:00,0.00%,$0.00,0,0.00%
stan@standean.com,2,00:37:50,0.00%,$0.00,0,0.00%
agent6@insuredmine.com,2,01:50:24,50.00%,$0.00,0,0.00%
franke@cascadecrestins.com,2,00:11:30,0.00%,$0.00,0,0.00%
michelleb@breweriigroup.com,2,00:40:14,50.00%,$0.00,0,0.00%
alysia@lewisinsurance4u.com,1,00:01:14,0.00%,$0.00,0,0.00%
camila@ammteam.net,1,00:02:23,0.00%,$0.00,0,0.00%
jessica@coastalalabamainsurance.com,1,00:00:23,0.00%,$0.00,0,0.00%
transport@breweriigroup.com,1,06:15:57,0.00%,$0.00,0,0.00%
jsandoval@televirtualcenters.com,1,00:00:21,0.00%,$0.00,0,0.00%
lupe@aiiainsurance.com,1,04:02:43,0.00%,$0.00,0,0.00%
c.turner@iocagency.com,1,00:49:49,0.00%,$0.00,0,0.00%
fernanda@aiiainsurance.com,1,02:32:47,0.00%,$0.00,0,0.00%
admin@cfinsgroup.com,1,00:00:00,100.00%,$0.00,0,0.00%
kevin@ammteam.net,1,00:00:10,0.00%,$0.00,0,0.00%
cole@breweriigroup.com,1,01:25:52,0.00%,$0.00,0,0.00%
rlareau.homeland@gmail.com,1,00:12:13,0.00%,$0.00,0,0.00%
montana@ammteam.net,1,00:02:37,0.00%,$0.00,0,0.00%
steven@breweriigroup.com,1,00:25:58,0.00%,$0.00,0,0.00%
test@insuredmine.com,1,00:00:00,100.00%,$0.00,0,0.00%
scot@trusthall.com,1,00:58:49,0.00%,$0.00,0,0.00%
hauling@breweriigroup.com,1,04:38:47,0.00%,$0.00,0,0.00%
abraham@ammteam.net,1,00:29:09,0.00%,$0.00,0,0.00%
aditya@insuredmine.com,1,02:48:15,0.00%,$0.00,0,0.00%
marty@rvinsurances.com,1,00:15:50,0.00%,$0.00,0,0.00%
nick@breweriigroup.com,1,04:23:51,0.00%,$0.00,0,0.00%
steve@mypropertyiscovered.com,1,00:00:08,0.00%,$0.00,0,0.00%
vishalk.valleyinsurance@gmail.com,1,00:00:16,0.00%,$0.00,0,0.00%
katelyn@coastalalabamainsurance.com,1,03:36:14,0.00%,$0.00,0,0.00%
ally@breweriigroup.com,1,08:35:03,0.00%,$0.00,0,0.00%
reginald@coastalalabamainsurance.com,1,00:59:29,0.00%,$0.00,0,0.00%
pbeltran@aiiainsurance.com,1,00:10:44,0.00%,$0.00,0,0.00%
boless4@weinsuretexas.com,1,03:00:40,0.00%,$0.00,0,0.00%
jibarra@aseguranzadeauto.com,1,01:16:39,0.00%,$0.00,0,0.00%
brandon@mypropertyiscovered.com,1,00:50:27,0.00%,$0.00,0,0.00%
filza@insuredmine.com,1,09:18:04,0.00%,$0.00,0,0.00%
jason@breweriigroup.com,1,06:28:51,0.00%,$0.00,0,0.00%
monse@aiiainsurance.com,1,00:00:03,0.00%,$0.00,0,0.00%
samiksha@insuredmine.com,1,00:35:31,0.00%,$0.00,0,0.00%
davidb@fincherins.com,1,00:08:23,0.00%,$0.00,0,0.00%
info@quoteasy.com,1,00:04:26,0.00%,$0.00,0,0.00%
jovana@aiiainsurance.com,1,06:32:14,0.00%,$0.00,0,0.00%
krevollar@breweriigroup.com,1,08:36:38,0.00%,$0.00,0,0.00%
admin@cascadecrest.com,1,00:00:00,100.00%,$0.00,0,0.00%
