demo@insuredmine.com,25,00:24:27,20.00%,$0.00,0,0.00%
samiksha@insuredmine.com,12,00:17:51,8.33%,$0.00,0,0.00%
havila@insuredmine.com,9,00:33:37,11.11%,$0.00,0,0.00%
sharwani@insuredmine.com,7,00:34:48,28.57%,$0.00,0,0.00%
carneal@chamblissinsurance.com,7,00:10:39,28.57%,$0.00,0,0.00%
bryan@breweriigroup.com,7,00:01:29,28.57%,$0.00,0,0.00%
hauling@breweriigroup.com,7,00:06:44,28.57%,$0.00,0,0.00%
camila@ammteam.net,7,00:04:11,14.29%,$0.00,0,0.00%
transport@breweriigroup.com,7,00:19:15,14.29%,$0.00,0,0.00%
kudeshiyaharshit@outlook.com,6,00:18:03,0.00%,$0.00,0,0.00%
ally@breweriigroup.com,6,00:33:59,0.00%,$0.00,0,0.00%
jason@breweriigroup.com,6,00:08:51,16.67%,$0.00,0,0.00%
aditya@insuredmine.com,5,00:12:19,20.00%,$0.00,0,0.00%
ben1@insuredmine.com,5,00:17:34,40.00%,$0.00,0,0.00%
maria.turner@iocagency.com,5,00:26:22,0.00%,$0.00,0,0.00%
jessica@coastalalabamainsurance.com,5,00:06:58,40.00%,$0.00,0,0.00%
krevollar@breweriigroup.com,4,01:20:49,25.00%,$0.00,0,0.00%
mtaylor@riskadvisors4u.com,4,00:12:18,25.00%,$0.00,0,0.00%
c.turner@iocagency.com,4,00:04:45,0.00%,$0.00,0,0.00%
marketing@aiiainsurance.com,4,00:28:41,25.00%,$0.00,0,0.00%
steven@breweriigroup.com,3,00:10:22,0.00%,$0.00,0,0.00%
y.calvo@klingerinsurancegroup.com,3,00:00:36,0.00%,$0.00,0,0.00%
natalie@aiiainsurance.com,3,00:01:01,33.33%,$0.00,0,0.00%
becky@mypropertyiscovered.com,3,00:13:12,0.00%,$0.00,0,0.00%
test@insuredmine.com,3,00:13:10,0.00%,$0.00,0,0.00%
steve@mypropertyiscovered.com,3,00:22:40,0.00%,$0.00,0,0.00%
cristal@aiiainsurance.com,3,00:13:37,33.33%,$0.00,0,0.00%
k.harris@klingerinsurancegroup.com,3,00:00:05,66.67%,$0.00,0,0.00%
stan@standean.com,3,00:18:07,0.00%,$0.00,0,0.00%
iocaccounts@insofthecarolinas.com,2,00:33:40,0.00%,$0.00,0,0.00%
alysia@lewisinsurance4u.com,2,00:00:17,0.00%,$0.00,0,0.00%
katelyn@coastalalabamainsurance.com,2,00:03:23,0.00%,$0.00,0,0.00%
jsandoval@televirtualcenters.com,2,00:03:15,0.00%,$0.00,0,0.00%
sneha@insuredmine.com,2,00:09:04,0.00%,$0.00,0,0.00%
breanda@aiiainsurance.com,2,00:04:55,0.00%,$0.00,0,0.00%
nathan@momentumins.net,2,00:00:09,0.00%,$0.00,0,0.00%
lupe@aiiainsurance.com,2,00:02:39,0.00%,$0.00,0,0.00%
kayleen@aiiainsurance.com,2,00:24:58,0.00%,$0.00,0,0.00%
saloni@insuredmine.com,2,00:01:03,0.00%,$0.00,0,0.00%
abedolla@aiiainsurance.com,2,00:08:11,0.00%,$0.00,0,0.00%
cole@breweriigroup.com,2,00:26:41,0.00%,$0.00,0,0.00%
nona@riskadvisors4u.com,2,00:12:59,50.00%,$0.00,0,0.00%
sharan@feroxlawyers.com.au,1,00:46:51,0.00%,$0.00,0,0.00%
workflowagent1@gmail.com,1,00:05:41,0.00%,$0.00,0,0.00%
scot@trusthall.com,1,00:23:36,0.00%,$0.00,0,0.00%
griseldas@fincherins.com,1,00:00:56,0.00%,$0.00,0,0.00%
liset@viarapidaservices.com,1,00:11:17,0.00%,$0.00,0,0.00%
jorge@aiiainsurance.com,1,00:18:16,0.00%,$0.00,0,0.00%
admin@cascadecrest.com,1,00:00:00,100.00%,$0.00,0,0.00%
rlareau.homeland@gmail.com,1,00:00:00,100.00%,$0.00,0,0.00%
pbeltran@aiiainsurance.com,1,00:30:36,0.00%,$0.00,0,0.00%
reginald@coastalalabamainsurance.com,1,00:28:37,0.00%,$0.00,0,0.00%
info@quoteasy.com,1,00:16:30,0.00%,$0.00,0,0.00%
michelleb@breweriigroup.com,1,00:00:13,0.00%,$0.00,0,0.00%
leslie@aiiainsurance.com,1,00:05:44,0.00%,$0.00,0,0.00%
admin@b2insurance.com,1,00:02:00,0.00%,$0.00,0,0.00%
shubham1@insuredmine.com,1,00:00:00,100.00%,$0.00,0,0.00%
brandon@mypropertyiscovered.com,1,00:41:15,0.00%,$0.00,0,0.00%
sarah@hannonmurphy.com,1,00:18:57,0.00%,$0.00,0,0.00%
oaguillar@televirtualcenters.com,1,00:24:43,0.00%,$0.00,0,0.00%
monse@aiiainsurance.com,1,00:13:22,0.00%,$0.00,0,0.00%
raution@insuredmine.com,1,00:19:00,0.00%,$0.00,0,0.00%
