demo@insuredmine.com,23,00:18:38,13.04%,$0.00,0,0.00%
test@insuredmine.com,13,00:13:34,0.00%,$0.00,0,0.00%
kudeshiyaharshit@outlook.com,11,00:23:43,27.27%,$0.00,0,0.00%
havila@insuredmine.com,8,00:59:57,0.00%,$0.00,0,0.00%
bryan@breweriigroup.com,7,00:02:31,57.14%,$0.00,0,0.00%
sharwani@insuredmine.com,7,00:20:32,0.00%,$0.00,0,0.00%
samiksha@insuredmine.com,7,00:35:16,14.29%,$0.00,0,0.00%
steven@breweriigroup.com,6,00:02:46,0.00%,$0.00,0,0.00%
transport@breweriigroup.com,6,00:30:11,0.00%,$0.00,0,0.00%
ally@breweriigroup.com,6,00:43:39,0.00%,$0.00,0,0.00%
filza@insuredmine.com,6,00:19:44,0.00%,$0.00,0,0.00%
hauling@breweriigroup.com,5,00:13:30,20.00%,$0.00,0,0.00%
krevollar@breweriigroup.com,5,00:50:45,0.00%,$0.00,0,0.00%
carneal@chamblissinsurance.com,5,00:20:22,20.00%,$0.00,0,0.00%
shubham1@insuredmine.com,5,00:12:21,0.00%,$0.00,0,0.00%
jessica@coastalalabamainsurance.com,5,00:13:21,20.00%,$0.00,0,0.00%
mtaylor@riskadvisors4u.com,4,00:10:21,25.00%,$0.00,0,0.00%
stan@standean.com,4,01:53:34,0.00%,$0.00,0,0.00%
boless4@weinsuretexas.com,4,00:29:59,25.00%,$0.00,0,0.00%
nona@riskadvisors4u.com,3,00:00:17,0.00%,$0.00,0,0.00%
scot@trusthall.com,3,00:06:25,0.00%,$0.00,0,0.00%
cole@breweriigroup.com,3,00:08:31,0.00%,$0.00,0,0.00%
abedolla@aiiainsurance.com,3,00:03:10,66.67%,$0.00,0,0.00%
jason@breweriigroup.com,3,00:04:42,33.33%,$0.00,0,0.00%
camila@ammteam.net,3,00:26:08,0.00%,$0.00,0,0.00%
lupe@aiiainsurance.com,3,00:05:50,0.00%,$0.00,0,0.00%
marketing@aiiainsurance.com,3,00:00:09,33.33%,$0.00,0,0.00%
kayleen@aiiainsurance.com,2,00:28:37,0.00%,$0.00,0,0.00%
breanda@aiiainsurance.com,2,00:03:28,0.00%,$0.00,0,0.00%
raution@insuredmine.com,2,00:01:19,50.00%,$0.00,0,0.00%
monse@aiiainsurance.com,2,00:08:41,0.00%,$0.00,0,0.00%
imelda@aiiainsurance.com,2,00:00:05,50.00%,$0.00,0,0.00%
k.harris@klingerinsurancegroup.com,2,00:00:14,50.00%,$0.00,0,0.00%
nick@breweriigroup.com,2,00:00:13,0.00%,$0.00,0,0.00%
katelyn@coastalalabamainsurance.com,2,00:20:46,0.00%,$0.00,0,0.00%
workflowagent1@gmail.com,2,00:03:17,0.00%,$0.00,0,0.00%
saloni@insuredmine.com,2,00:05:22,0.00%,$0.00,0,0.00%
jovana@aiiainsurance.com,2,00:00:29,50.00%,$0.00,0,0.00%
griseldas@fincherins.com,2,00:00:54,50.00%,$0.00,0,0.00%
ana@aiiainsurance.com,2,00:05:40,0.00%,$0.00,0,0.00%
kelly.donald@iocagency.com,1,00:01:15,0.00%,$0.00,0,0.00%
h.tran@klingerinsurancegroup.com,1,00:05:04,0.00%,$0.00,0,0.00%
rakesh@insuredmine.com,1,00:00:00,100.00%,$0.00,0,0.00%
montana@ammteam.net,1,00:03:41,0.00%,$0.00,0,0.00%
michelleb@breweriigroup.com,1,00:00:12,0.00%,$0.00,0,0.00%
oaguillar@televirtualcenters.com,1,00:25:32,0.00%,$0.00,0,0.00%
nathan@momentumins.net,1,00:00:11,0.00%,$0.00,0,0.00%
cristal@aiiainsurance.com,1,00:00:02,0.00%,$0.00,0,0.00%
sidney@sanmarcos-insurance.com,1,00:02:46,0.00%,$0.00,0,0.00%
satave.manisha@gmail.com,1,01:14:31,0.00%,$0.00,0,0.00%
leslie@aiiainsurance.com,1,00:00:09,0.00%,$0.00,0,0.00%
natalie@aiiainsurance.com,1,00:08:17,0.00%,$0.00,0,0.00%
jorge@aiiainsurance.com,1,00:33:38,0.00%,$0.00,0,0.00%
sharan@feroxlawyers.com.au,1,00:00:00,100.00%,$0.00,0,0.00%
sarah@hannonmurphy.com,1,00:18:36,0.00%,$0.00,0,0.00%
jsanchez@aiiainsurance.com,1,00:00:05,0.00%,$0.00,0,0.00%
cover@rideshare29.com.au,1,00:04:44,0.00%,$0.00,0,0.00%
svgomes@gmail.com,1,00:13:36,0.00%,$0.00,0,0.00%
dylantcurtis@icloud.com,1,00:00:17,0.00%,$0.00,0,0.00%
jp@insurezone.com,1,00:00:39,0.00%,$0.00,0,0.00%
aditya@insuredmine.com,1,00:10:37,0.00%,$0.00,0,0.00%
admin@peakgroup.insure,1,00:00:00,100.00%,$0.00,0,0.00%
tate@ammteam.net,1,00:00:54,0.00%,$0.00,0,0.00%
pbeltran@aiiainsurance.com,1,00:01:41,0.00%,$0.00,0,0.00%
ckale@kaleinsurance.com,1,00:09:27,0.00%,$0.00,0,0.00%
inquiries@insonegroup.com,1,00:00:00,100.00%,$0.00,0,0.00%
