singledripa1@insuredmine.com,22,00:07:51,0.00%,$0.00,0,0.00%
test@insuredmine.com,13,00:04:14,0.00%,$0.00,0,0.00%
demo@insuredmine.com,10,02:36:11,0.00%,$0.00,0,0.00%
samiksha@insuredmine.com,9,00:55:27,11.11%,$0.00,0,0.00%
ben1@insuredmine.com,7,01:21:08,0.00%,$0.00,0,0.00%
reginald@coastalalabamainsurance.com,6,00:32:36,16.67%,$0.00,0,0.00%
shubham1@insuredmine.com,6,00:33:33,0.00%,$0.00,0,0.00%
carneal@chamblissinsurance.com,5,00:51:33,0.00%,$0.00,0,0.00%
kudeshiyaharshit@outlook.com,5,00:49:01,0.00%,$0.00,0,0.00%
sharwani@insuredmine.com,5,02:17:14,0.00%,$0.00,0,0.00%
scot@trusthall.com,5,00:58:15,0.00%,$0.00,0,0.00%
workflowagent1@gmail.com,5,00:06:25,0.00%,$0.00,0,0.00%
raution@insuredmine.com,4,01:58:09,0.00%,$0.00,0,0.00%
havila@insuredmine.com,4,02:40:46,0.00%,$0.00,0,0.00%
cover@rideshare29.com.au,3,02:22:58,0.00%,$0.00,0,0.00%
tate@ammteam.net,2,04:15:22,0.00%,$0.00,0,0.00%
marty@rvinsurances.com,2,00:20:12,50.00%,$0.00,0,0.00%
camila@ammteam.net,2,03:04:37,0.00%,$0.00,0,0.00%
hauling@breweriigroup.com,2,05:20:06,0.00%,$0.00,0,0.00%
stan@standean.com,2,05:41:14,0.00%,$0.00,0,0.00%
agent1@insuredmine.com,2,00:04:58,0.00%,$0.00,0,0.00%
kevin@ammteam.net,2,00:54:21,0.00%,$0.00,0,0.00%
houseaccount@lewisinsurance4u.com,2,00:51:26,0.00%,$0.00,0,0.00%
nick@breweriigroup.com,2,02:00:06,0.00%,$0.00,0,0.00%
steven@breweriigroup.com,2,02:42:16,0.00%,$0.00,0,0.00%
katelyn@coastalalabamainsurance.com,2,03:33:52,0.00%,$0.00,0,0.00%
jessica@coastalalabamainsurance.com,2,02:18:47,0.00%,$0.00,0,0.00%
stacey@peakgroup.insure,2,00:00:27,50.00%,$0.00,0,0.00%
yany@quoteasy.com,2,00:26:47,0.00%,$0.00,0,0.00%
agent2@insuredmine.com,2,00:55:14,0.00%,$0.00,0,0.00%
saloni@insuredmine.com,1,01:08:05,0.00%,$0.00,0,0.00%
abraham@ammteam.net,1,03:23:15,0.00%,$0.00,0,0.00%
michelleb@breweriigroup.com,1,07:28:09,0.00%,$0.00,0,0.00%
admin@cfinsgroup.com,1,00:00:00,100.00%,$0.00,0,0.00%
chaunte@wester-insurance.com,1,00:00:00,100.00%,$0.00,0,0.00%
cole@breweriigroup.com,1,00:35:10,0.00%,$0.00,0,0.00%
karina@viarapidaservices.com,1,00:00:15,0.00%,$0.00,0,0.00%
k.harris@klingerinsurancegroup.com,1,01:52:08,0.00%,$0.00,0,0.00%
c.turner@iocagency.com,1,00:00:11,0.00%,$0.00,0,0.00%
bryan@breweriigroup.com,1,08:46:00,0.00%,$0.00,0,0.00%
steve@mypropertyiscovered.com,1,00:01:58,0.00%,$0.00,0,0.00%
lisab@fincherins.com,1,00:00:40,0.00%,$0.00,0,0.00%
filza@insuredmine.com,1,08:40:41,0.00%,$0.00,0,0.00%
kim@myapexagency.com,1,00:06:00,0.00%,$0.00,0,0.00%
transport@breweriigroup.com,1,08:07:56,0.00%,$0.00,0,0.00%
emilio@ammteam.net,1,00:53:12,0.00%,$0.00,0,0.00%
franke@cascadecrestins.com,1,00:00:11,0.00%,$0.00,0,0.00%
mhunt@riskadvisors4u.com,1,00:02:07,0.00%,$0.00,0,0.00%
hardy@feroxlawyers.com.au,1,00:00:00,100.00%,$0.00,0,0.00%
ally@breweriigroup.com,1,08:28:56,0.00%,$0.00,0,0.00%
joel@wester-insurance.com,1,01:32:19,0.00%,$0.00,0,0.00%
5@fabulic.com,1,00:03:05,0.00%,$0.00,0,0.00%
nona@riskadvisors4u.com,1,00:00:19,0.00%,$0.00,0,0.00%
jenny@onetag.org,1,00:17:59,0.00%,$0.00,0,0.00%
jp@insurezone.com,1,00:00:38,0.00%,$0.00,0,0.00%
sharan@feroxlawyers.com.au,1,05:27:50,0.00%,$0.00,0,0.00%
boless4@weinsuretexas.com,1,00:43:08,0.00%,$0.00,0,0.00%
ghanson@proinsgroup.com,1,00:04:22,0.00%,$0.00,0,0.00%
indred@ialexanderagency.com,1,00:14:44,0.00%,$0.00,0,0.00%
shubham@insuredmine.com,1,00:10:13,0.00%,$0.00,0,0.00%
admin@fabulic.com,1,02:33:17,0.00%,$0.00,0,0.00%
anass@defyinsurance.com,1,00:00:01,0.00%,$0.00,0,0.00%
singledripb1@insuredmine.com,1,00:05:20,0.00%,$0.00,0,0.00%
monique@ammteam.net,1,00:03:22,0.00%,$0.00,0,0.00%
admin@rvinsurance.com,1,00:02:49,0.00%,$0.00,0,0.00%
jason@breweriigroup.com,1,05:41:57,0.00%,$0.00,0,0.00%
mtaylor@riskadvisors4u.com,1,03:13:36,0.00%,$0.00,0,0.00%
krevollar@breweriigroup.com,1,08:17:13,0.00%,$0.00,0,0.00%