demo@insuredmine.com,22,02:12:12,0.00%,$0.00,0,0.00%
scot@trusthall.com,10,01:25:24,0.00%,$0.00,0,0.00%
shubham1@insuredmine.com,10,01:39:56,10.00%,$0.00,0,0.00%
samiksha@insuredmine.com,7,01:05:54,0.00%,$0.00,0,0.00%
kudeshiyaharshit@outlook.com,7,00:56:03,14.29%,$0.00,0,0.00%
sharwani@insuredmine.com,6,03:34:03,0.00%,$0.00,0,0.00%
agent2@insuredmine.com,5,00:33:56,0.00%,$0.00,0,0.00%
cover@rideshare29.com.au,5,01:09:22,0.00%,$0.00,0,0.00%
havila@insuredmine.com,4,02:32:24,0.00%,$0.00,0,0.00%
ben1@insuredmine.com,3,02:19:43,0.00%,$0.00,0,0.00%
filza@insuredmine.com,3,01:39:04,0.00%,$0.00,0,0.00%
ally@breweriigroup.com,2,04:17:50,0.00%,$0.00,0,0.00%
steven@breweriigroup.com,2,00:23:30,0.00%,$0.00,0,0.00%
admin@cascadecrest.com,2,00:02:11,0.00%,$0.00,0,0.00%
hauling@breweriigroup.com,2,04:32:42,0.00%,$0.00,0,0.00%
dbaker@breweriigroup.com,2,00:01:20,0.00%,$0.00,0,0.00%
agent1@insuredmine.com,2,00:00:52,0.00%,$0.00,0,0.00%
raution@insuredmine.com,2,00:00:23,0.00%,$0.00,0,0.00%
jessica@coastalalabamainsurance.com,2,04:34:42,0.00%,$0.00,0,0.00%
amy@timberlakeinsurancegroup.com,2,01:54:29,50.00%,$0.00,0,0.00%
jacques@hfmib.co.za,2,00:07:38,0.00%,$0.00,0,0.00%
c.turner@iocagency.com,2,00:59:16,0.00%,$0.00,0,0.00%
stan@standean.com,2,02:10:08,0.00%,$0.00,0,0.00%
kevin@ammteam.net,1,00:18:40,0.00%,$0.00,0,0.00%
bryan@breweriigroup.com,1,08:06:10,0.00%,$0.00,0,0.00%
carneal@chamblissinsurance.com,1,05:59:57,0.00%,$0.00,0,0.00%
data1@insuredmine.com,1,00:03:20,0.00%,$0.00,0,0.00%
michelleb@breweriigroup.com,1,07:39:39,0.00%,$0.00,0,0.00%
k.harris@klingerinsurancegroup.com,1,00:00:43,0.00%,$0.00,0,0.00%
tate@ammteam.net,1,00:02:47,0.00%,$0.00,0,0.00%
boless4@weinsuretexas.com,1,00:01:02,0.00%,$0.00,0,0.00%
cole@breweriigroup.com,1,05:11:43,0.00%,$0.00,0,0.00%
houseaccount@timberlakeinsurancegroup.com,1,00:00:00,100.00%,$0.00,0,0.00%
emilio@ammteam.net,1,01:32:10,0.00%,$0.00,0,0.00%
admin@timberlakeinsurancegorup.com,1,00:08:01,0.00%,$0.00,0,0.00%
rod@chaneybuskirk.com,1,00:16:45,0.00%,$0.00,0,0.00%
satave.manisha@gmail.com,1,00:34:14,0.00%,$0.00,0,0.00%
darrellg@cascadecrestins.com,1,00:08:08,0.00%,$0.00,0,0.00%
sharan@feroxlawyers.com.au,1,07:29:17,0.00%,$0.00,0,0.00%
krevollar@breweriigroup.com,1,08:26:35,0.00%,$0.00,0,0.00%
franke@cascadecrestins.com,1,00:00:11,0.00%,$0.00,0,0.00%
workflowmanager@gmail.com,1,00:01:50,0.00%,$0.00,0,0.00%
mtaylor@riskadvisors4u.com,1,02:05:18,0.00%,$0.00,0,0.00%
transport@breweriigroup.com,1,09:49:35,0.00%,$0.00,0,0.00%
camila@ammteam.net,1,00:28:02,0.00%,$0.00,0,0.00%
nick@breweriigroup.com,1,03:35:42,0.00%,$0.00,0,0.00%
marty@rvinsurances.com,1,04:14:05,0.00%,$0.00,0,0.00%
katelyn@coastalalabamainsurance.com,1,03:25:31,0.00%,$0.00,0,0.00%
sneha@insuredmine.com,1,00:00:54,0.00%,$0.00,0,0.00%
greg@stewartagency.com,1,00:00:18,0.00%,$0.00,0,0.00%
admin@rvinsurances.com,1,00:00:00,100.00%,$0.00,0,0.00%
jp@insurezone.com,1,00:00:31,0.00%,$0.00,0,0.00%
jason@breweriigroup.com,1,08:07:14,0.00%,$0.00,0,0.00%
rakesh@insuredmine.com,1,00:00:35,0.00%,$0.00,0,0.00%